<?php

/**
 * @gloabal app_database 
 * */
$GLOBALS['app_database'] = include  __DIR__."/database.php";


/**
 * @gloabal app_dis 
 * */
$GLOBALS["app_dis"] = include __DIR__."/dirs.php";


/**
 * @gloabal app_host
 * */
$GLOBALS["app_host"] = include __DIR__."/host.php";
