<!DOCTYPE html>
<html lang="en">
<head>
    <meta charset="UTF-8">
    <meta name="viewport" content="width=device-width, initial-scale=1.0">
    <meta http-equiv="X-UA-Compatible" content="ie=edge">    
    <script src="js/style.js"></script>  
    <script src="js/app.js"></script>    
    <title>Document</title>
</head>
<body>
<div id="app">
    <mycomp></mycomp>
</div>    
</body>
</html>
